%YAML 1.1
%TAG !u! tag:unity3d.com,2011:
--- !u!114 &11400000
MonoBehaviour:
  m_ObjectHideFlags: 0
  m_CorrespondingSourceObject: {fileID: 0}
  m_PrefabInstance: {fileID: 0}
  m_PrefabAsset: {fileID: 0}
  m_GameObject: {fileID: 0}
  m_Enabled: 1
  m_EditorHideFlags: 0
  m_Script: {fileID: 11500000, guid: 929b8783dbfc45e4c8dff4768a82fd72, type: 3}
  m_Name: ZombieEnemyData
  m_EditorClassIdentifier: 
  enemyName: Zombie
  description: It's a zombie, your common enemy
  attributes:
    cooldownAttack: 3
    damage: 10
    speed: 100
    hp: 100
